RT_TENDER.vcd
$date
	Mon Sep 16 10:20:47 2024
$end
$version
	Icarus Verilog
$end
$timescale
	1ps
$end
$scope module RT_TENDER_tb $end
$var reg 1 ! clk $end
$var reg 1 " rstn $end
$scope module RT_TENDER $end
$var wire 1 ! clk $end
$var wire 1 " rstn $end
$var wire 1 # valid_maxtree $end
$var wire 1 $ valid_idxgen $end
$var wire 1 % valid_VPU $end
$var wire 16 & max_val [15:0] $end
$var wire 8 ' grp_idx [7:0] $end
$var wire 8 ( counter [7:0] $end
$var wire 8 ) buffer_addr [7:0] $end
$var wire 16 * Tmax_vpu [15:0] $end
$var wire 16 + Tmax_maxtree [15:0] $end
$var wire 1024 , Tensors [1023:0] $end
$var wire 16 - Chidx_vpu [15:0] $end
$var wire 16 . Chidx_maxtree [15:0] $end
$var wire 16 / Chidx_idxgen [15:0] $end
$var wire 32 0 CORE_CYCLE [31:0] $end
$var parameter 32 1 DATA_WIDTH $end
$scope module Maxtree64 $end
$var wire 1 ! clk $end
$var wire 1 " rstn $end
$var wire 1 % valid_in $end
$var wire 16 2 Tmax_in [15:0] $end
$var wire 1024 3 Tensor [1023:0] $end
$var wire 16 4 Chidx_in [15:0] $end
$var reg 16 5 Chidx_out [15:0] $end
$var reg 16 6 Tmax_out [15:0] $end
$var reg 16 7 max_val [15:0] $end
$var reg 16 8 stage1_Chidx [15:0] $end
$var reg 16 9 stage1_Tmax [15:0] $end
$var reg 1 : stage1_val $end
$var reg 16 ; stage2_Chidx [15:0] $end
$var reg 16 < stage2_Tmax [15:0] $end
$var reg 1 = stage2_val $end
$var reg 16 > stage3_Chidx [15:0] $end
$var reg 16 ? stage3_Tmax [15:0] $end
$var reg 1 @ stage3_val $end
$var reg 16 A stage4_Chidx [15:0] $end
$var reg 16 B stage4_Tmax [15:0] $end
$var reg 1 C stage4_val $end
$var reg 16 D stage5_Chidx [15:0] $end
$var reg 16 E stage5_Tmax [15:0] $end
$var reg 1 F stage5_val $end
$var reg 16 G stage6 [15:0] $end
$var reg 1 # valid_out $end
$var integer 32 H i [31:0] $end
$scope begin i_gen[0] $end
$var parameter 2 I i $end
$upscope $end
$scope begin i_gen[1] $end
$var parameter 2 J i $end
$upscope $end
$scope begin i_gen[2] $end
$var parameter 3 K i $end
$upscope $end
$scope begin i_gen[3] $end
$var parameter 3 L i $end
$upscope $end
$scope begin i_gen[4] $end
$var parameter 4 M i $end
$upscope $end
$scope begin i_gen[5] $end
$var parameter 4 N i $end
$upscope $end
$scope begin i_gen[6] $end
$var parameter 4 O i $end
$upscope $end
$scope begin i_gen[7] $end
$var parameter 4 P i $end
$upscope $end
$scope begin i_gen[8] $end
$var parameter 5 Q i $end
$upscope $end
$scope begin i_gen[9] $end
$var parameter 5 R i $end
$upscope $end
$scope begin i_gen[10] $end
$var parameter 5 S i $end
$upscope $end
$scope begin i_gen[11] $end
$var parameter 5 T i $end
$upscope $end
$scope begin i_gen[12] $end
$var parameter 5 U i $end
$upscope $end
$scope begin i_gen[13] $end
$var parameter 5 V i $end
$upscope $end
$scope begin i_gen[14] $end
$var parameter 5 W i $end
$upscope $end
$scope begin i_gen[15] $end
$var parameter 5 X i $end
$upscope $end
$scope begin i_gen[16] $end
$var parameter 6 Y i $end
$upscope $end
$scope begin i_gen[17] $end
$var parameter 6 Z i $end
$upscope $end
$scope begin i_gen[18] $end
$var parameter 6 [ i $end
$upscope $end
$scope begin i_gen[19] $end
$var parameter 6 \ i $end
$upscope $end
$scope begin i_gen[20] $end
$var parameter 6 ] i $end
$upscope $end
$scope begin i_gen[21] $end
$var parameter 6 ^ i $end
$upscope $end
$scope begin i_gen[22] $end
$var parameter 6 _ i $end
$upscope $end
$scope begin i_gen[23] $end
$var parameter 6 ` i $end
$upscope $end
$scope begin i_gen[24] $end
$var parameter 6 a i $end
$upscope $end
$scope begin i_gen[25] $end
$var parameter 6 b i $end
$upscope $end
$scope begin i_gen[26] $end
$var parameter 6 c i $end
$upscope $end
$scope begin i_gen[27] $end
$var parameter 6 d i $end
$upscope $end
$scope begin i_gen[28] $end
$var parameter 6 e i $end
$upscope $end
$scope begin i_gen[29] $end
$var parameter 6 f i $end
$upscope $end
$scope begin i_gen[30] $end
$var parameter 6 g i $end
$upscope $end
$scope begin i_gen[31] $end
$var parameter 6 h i $end
$upscope $end
$scope begin i_gen[32] $end
$var parameter 7 i i $end
$upscope $end
$scope begin i_gen[33] $end
$var parameter 7 j i $end
$upscope $end
$scope begin i_gen[34] $end
$var parameter 7 k i $end
$upscope $end
$scope begin i_gen[35] $end
$var parameter 7 l i $end
$upscope $end
$scope begin i_gen[36] $end
$var parameter 7 m i $end
$upscope $end
$scope begin i_gen[37] $end
$var parameter 7 n i $end
$upscope $end
$scope begin i_gen[38] $end
$var parameter 7 o i $end
$upscope $end
$scope begin i_gen[39] $end
$var parameter 7 p i $end
$upscope $end
$scope begin i_gen[40] $end
$var parameter 7 q i $end
$upscope $end
$scope begin i_gen[41] $end
$var parameter 7 r i $end
$upscope $end
$scope begin i_gen[42] $end
$var parameter 7 s i $end
$upscope $end
$scope begin i_gen[43] $end
$var parameter 7 t i $end
$upscope $end
$scope begin i_gen[44] $end
$var parameter 7 u i $end
$upscope $end
$scope begin i_gen[45] $end
$var parameter 7 v i $end
$upscope $end
$scope begin i_gen[46] $end
$var parameter 7 w i $end
$upscope $end
$scope begin i_gen[47] $end
$var parameter 7 x i $end
$upscope $end
$scope begin i_gen[48] $end
$var parameter 7 y i $end
$upscope $end
$scope begin i_gen[49] $end
$var parameter 7 z i $end
$upscope $end
$scope begin i_gen[50] $end
$var parameter 7 { i $end
$upscope $end
$scope begin i_gen[51] $end
$var parameter 7 | i $end
$upscope $end
$scope begin i_gen[52] $end
$var parameter 7 } i $end
$upscope $end
$scope begin i_gen[53] $end
$var parameter 7 ~ i $end
$upscope $end
$scope begin i_gen[54] $end
$var parameter 7 !" i $end
$upscope $end
$scope begin i_gen[55] $end
$var parameter 7 "" i $end
$upscope $end
$scope begin i_gen[56] $end
$var parameter 7 #" i $end
$upscope $end
$scope begin i_gen[57] $end
$var parameter 7 $" i $end
$upscope $end
$scope begin i_gen[58] $end
$var parameter 7 %" i $end
$upscope $end
$scope begin i_gen[59] $end
$var parameter 7 &" i $end
$upscope $end
$scope begin i_gen[60] $end
$var parameter 7 '" i $end
$upscope $end
$scope begin i_gen[61] $end
$var parameter 7 (" i $end
$upscope $end
$scope begin i_gen[62] $end
$var parameter 7 )" i $end
$upscope $end
$scope begin i_gen[63] $end
$var parameter 7 *" i $end
$upscope $end
$upscope $end
$scope module VPU_memory $end
$var wire 1 ! clk $end
$var wire 1 " rstn $end
$var parameter 32 +" DATA_WIDTH $end
$var parameter 32 ," MEM_ADDR_SIZE $end
$var reg 16 -" Chnaddr [15:0] $end
$var reg 1024 ." Tensors [1023:0] $end
$var reg 16 /" Tmax [15:0] $end
$var reg 8 0" counter [7:0] $end
$var reg 1 % valid $end
$upscope $end
$scope module idx_generator $end
$var wire 16 1" Chidx_in [15:0] $end
$var wire 16 2" Tmax [15:0] $end
$var wire 1 ! clk $end
$var wire 16 3" in [15:0] $end
$var wire 1 " rstn $end
$var wire 1 # valid_in $end
$var wire 1 4" comp_mantissa $end
$var reg 16 5" Chidx_out [15:0] $end
$var reg 8 6" grp_idx [7:0] $end
$var reg 1 $ valid_out $end
$upscope $end
$scope module index_buffer $end
$var wire 16 7" Chidx [15:0] $end
$var wire 1 ! clk $end
$var wire 1 " rstn $end
$var wire 1 $ valid $end
$var wire 8 8" counter [7:0] $end
$var wire 8 9" buffer_addr [7:0] $end
$var parameter 32 :" BUFFER_SIZE $end
$var parameter 32 ;" DATA_WIDTH $end
$var integer 32 <" i [31:0] $end
$var integer 32 =" j [31:0] $end
$upscope $end
$scope module index_buffer_table $end
$var wire 1 ! clk $end
$var wire 8 >" grp_idx [7:0] $end
$var wire 1 " rstn $end
$var wire 1 $ valid $end
$var wire 8 ?" counter [7:0] $end
$var wire 8 @" buffer_addr [7:0] $end
$var parameter 32 A" MEM_ADDR_SIZE $end
$var parameter 32 B" TABLE_SIZE $end
$var parameter 32 C" TABLE_WIDTH $end
$var reg 8 D" next_free_block [7:0] $end
$var integer 32 E" i [31:0] $end
$upscope $end
$scope module m_core_cycle $end
$var wire 1 ! clk $end
$var wire 1 F" cond $end
$var wire 1 " rstn $end
$var reg 32 G" counter [31:0] $end
$upscope $end
$upscope $end
$upscope $end
$enddefinitions $end
$comment Show the parameter values. $end
$dumpall
b100010000 C"
b1000 B"
b1000 A"
b10000 ;"
b1000 :"
b101 ,"
b10000100001 +"
b111111 *"
b111110 )"
b111101 ("
b111100 '"
b111011 &"
b111010 %"
b111001 $"
b111000 #"
b110111 ""
b110110 !"
b110101 ~
b110100 }
b110011 |
b110010 {
b110001 z
b110000 y
b101111 x
b101110 w
b101101 v
b101100 u
b101011 t
b101010 s
b101001 r
b101000 q
b100111 p
b100110 o
b100101 n
b100100 m
b100011 l
b100010 k
b100001 j
b100000 i
b11111 h
b11110 g
b11101 f
b11100 e
b11011 d
b11010 c
b11001 b
b11000 a
b10111 `
b10110 _
b10101 ^
b10100 ]
b10011 \
b10010 [
b10001 Z
b10000 Y
b1111 X
b1110 W
b1101 V
b1100 U
b1011 T
b1010 S
b1001 R
b1000 Q
b111 P
b110 O
b101 N
b100 M
b11 L
b10 K
b1 J
b0 I
b10000 1
$end
#0
$dumpvars
bx G"
1F"
b11111111 E"
b0 D"
b0 @"
b0 ?"
b0 >"
b100000000 ="
b100000000 <"
b0 9"
b0 8"
bx 7"
b0 6"
bx 5"
x4"
bx 3"
bx 2"
bx 1"
b0 0"
bx /"
bx ."
bx -"
b100000 H
b0 G
xF
bx E
bx D
xC
bx B
bx A
x@
bx ?
bx >
x=
bx <
bx ;
x:
bx 9
bx 8
bx 7
bx 6
bx 5
bx 4
bx 3
bx 2
bx 0
bx /
bx .
bx -
bx ,
bx +
bx *
b0 )
b0 (
b0 '
bx &
x%
x$
x#
0"
0!
$end
#5000
b0 0
b0 G"
b100000000 ="
b100000000 <"
b11111111 E"
b10 H
1!
#10000
0!
1"
#15000
bx )
bx 9"
bx @"
bx (
bx 8"
bx ?"
0%
b1 0"
b0 -
b0 4
b0 -"
b0 ,
b0 3
b0 ."
b0 *
b0 2
b0 /"
b0 &
b0 7
b0 3"
bx '
bx 6"
bx >"
b1 0
b1 G"
b100000 H
1!
#20000
0!
#25000
b0 8
b0 9
0:
1%
b10 0"
b1001 -
b1001 4
b1001 -"
b100000000000000010000000000000010000000000000001000000000000000110000000000000011000000000000010000000000000001000000000000000101000000000000010100000000000001100000000000000110000000000000011100000000000001110000000000001000000000000000100000000000000010010000000000001001000000000000101000000000000010100000000000001011000000000000101100000000000011000000000000001100000000000000110100000000000011010000000000001110000000000000111000000000000011110000000000001111000000000001000000000000000100000000000000010001000000000001000100000000000100100000000000010010000000000001001100000000000100110000000000010100000000000001010000000000000101010000000000010101000000000001011000000000000101100000000000010111000000000001011100000000000110000000000000011000000000000001100100000000000110010000000000011010000000000001101000000000000110110000000000011011000000000001110000000000000111000000000000011101000000000001110100000000000111100000000000011110000000000001111100000000000111110000000000 ,
b100000000000000010000000000000010000000000000001000000000000000110000000000000011000000000000010000000000000001000000000000000101000000000000010100000000000001100000000000000110000000000000011100000000000001110000000000001000000000000000100000000000000010010000000000001001000000000000101000000000000010100000000000001011000000000000101100000000000011000000000000001100000000000000110100000000000011010000000000001110000000000000111000000000000011110000000000001111000000000001000000000000000100000000000000010001000000000001000100000000000100100000000000010010000000000001001100000000000100110000000000010100000000000001010000000000000101010000000000010101000000000001011000000000000101100000000000010111000000000001011100000000000110000000000000011000000000000001100100000000000110010000000000011010000000000001101000000000000110110000000000011011000000000001110000000000000111000000000000011101000000000001110100000000000111100000000000011110000000000001111100000000000111110000000000 3
b100000000000000010000000000000010000000000000001000000000000000110000000000000011000000000000010000000000000001000000000000000101000000000000010100000000000001100000000000000110000000000000011100000000000001110000000000001000000000000000100000000000000010010000000000001001000000000000101000000000000010100000000000001011000000000000101100000000000011000000000000001100000000000000110100000000000011010000000000001110000000000000111000000000000011110000000000001111000000000001000000000000000100000000000000010001000000000001000100000000000100100000000000010010000000000001001100000000000100110000000000010100000000000001010000000000000101010000000000010101000000000001011000000000000101100000000000010111000000000001011100000000000110000000000000011000000000000001100100000000000110010000000000011010000000000001101000000000000110110000000000011011000000000001110000000000000111000000000000011101000000000001110100000000000111100000000000011110000000000001111100000000000111110000000000 ."
b1111110000000000 *
b1111110000000000 2
b1111110000000000 /"
b10 0
b10 G"
b10 H
1!
#30000
0!
#35000
b11 0"
b11 -
b11 4
b11 -"
b1000000000000001000000000000000110000000000000100000000000000010100000000000001100000000000000111000000000000100000000000000010010000000000001010000000000000101100000000000011000000000000001101000000000000111000000000000011110000000000010000000000000001000100000000000100100000000000010011000000000001010000000000000101010000000000010110000000000001011100000000000110000000000000011001000000000001101000000000000110110000000000011100000000000001110100000000000111100000000000011111000000000010000000000000001000010000000000100010000000000010001100000000001001000000000000100101000000000010011000000000001001110000000000101000000000000010100100000000001010100000000000101011000000000010110000000000001011010000000000101110000000000010111100000000001100000000000000110001000000000011001000000000001100110000000000110100000000000011010100000000001101100000000000110111000000000011100000000000001110010000000000111010000000000011101100000000001111000000000000111101000000000011111000000000001111110000000000 ,
b1000000000000001000000000000000110000000000000100000000000000010100000000000001100000000000000111000000000000100000000000000010010000000000001010000000000000101100000000000011000000000000001101000000000000111000000000000011110000000000010000000000000001000100000000000100100000000000010011000000000001010000000000000101010000000000010110000000000001011100000000000110000000000000011001000000000001101000000000000110110000000000011100000000000001110100000000000111100000000000011111000000000010000000000000001000010000000000100010000000000010001100000000001001000000000000100101000000000010011000000000001001110000000000101000000000000010100100000000001010100000000000101011000000000010110000000000001011010000000000101110000000000010111100000000001100000000000000110001000000000011001000000000001100110000000000110100000000000011010100000000001101100000000000110111000000000011100000000000001110010000000000111010000000000011101100000000001111000000000000111101000000000011111000000000001111110000000000 3
b1000000000000001000000000000000110000000000000100000000000000010100000000000001100000000000000111000000000000100000000000000010010000000000001010000000000000101100000000000011000000000000001101000000000000111000000000000011110000000000010000000000000001000100000000000100100000000000010011000000000001010000000000000101010000000000010110000000000001011100000000000110000000000000011001000000000001101000000000000110110000000000011100000000000001110100000000000111100000000000011111000000000010000000000000001000010000000000100010000000000010001100000000001001000000000000100101000000000010011000000000001001110000000000101000000000000010100100000000001010100000000000101011000000000010110000000000001011010000000000101110000000000010111100000000001100000000000000110001000000000011001000000000001100110000000000110100000000000011010100000000001101100000000000110111000000000011100000000000001110010000000000111010000000000011101100000000001111000000000000111101000000000011111000000000001111110000000000 ."
b1001 8
b1111110000000000 9
1:
b0 ;
b0 <
0=
b11 0
b11 G"
b100000 H
1!
#40000
0!
#45000
b0 >
b0 ?
0@
b1001 ;
b1111110000000000 <
1=
b11 8
0%
b100 0"
b0 -
b0 4
b0 -"
b0 ,
b0 3
b0 ."
b0 *
b0 2
b0 /"
b100 0
b100 G"
b10 H
1!
#50000
0!
#55000
b101 0"
b0 8
b0 9
0:
b11 ;
b1001 >
b1111110000000000 ?
1@
b0 A
b0 B
0C
b101 0
b101 G"
b100000 H
1!
#60000
0!
#65000
bx &
bx 7
bx 3"
b0 D
b0 E
0F
b1001 A
b1111110000000000 B
1C
b11 >
b0 ;
b0 <
0=
1%
b110 0"
b11001001 -
b11001001 4
b11001001 -"
b100000000000000010000000000000010000000000000001000000000000000110000000000000011000000000000010000000000000001000000000000000101000000000000010100000000000001100000000000000110000000000000011100000000000001110000000000001000000000000000100000000000000010010000000000001001000000000000101000000000000010100000000000001011000000000000101100000000000011000000000000001100000000000000110100000000000011010000000000001110000000000000111000000000000011110000000000001111000000000001000000000000000100000000000000010001000000000001000100000000000100100000000000010010000000000001001100000000000100110000000000010100000000000001010000000000000101010000000000010101000000000001011000000000000101100000000000010111000000000001011100000000000110000000000000011000000000000001100100000000000110010000000000011010000000000001101000000000000110110000000000011011000000000001110000000000000111000000000000011101000000000001110100000000000111100000000000011110000000000001111100000000000111110000000000 ,
b100000000000000010000000000000010000000000000001000000000000000110000000000000011000000000000010000000000000001000000000000000101000000000000010100000000000001100000000000000110000000000000011100000000000001110000000000001000000000000000100000000000000010010000000000001001000000000000101000000000000010100000000000001011000000000000101100000000000011000000000000001100000000000000110100000000000011010000000000001110000000000000111000000000000011110000000000001111000000000001000000000000000100000000000000010001000000000001000100000000000100100000000000010010000000000001001100000000000100110000000000010100000000000001010000000000000101010000000000010101000000000001011000000000000101100000000000010111000000000001011100000000000110000000000000011000000000000001100100000000000110010000000000011010000000000001101000000000000110110000000000011011000000000001110000000000000111000000000000011101000000000001110100000000000111100000000000011110000000000001111100000000000111110000000000 3
b100000000000000010000000000000010000000000000001000000000000000110000000000000011000000000000010000000000000001000000000000000101000000000000010100000000000001100000000000000110000000000000011100000000000001110000000000001000000000000000100000000000000010010000000000001001000000000000101000000000000010100000000000001011000000000000101100000000000011000000000000001100000000000000110100000000000011010000000000001110000000000000111000000000000011110000000000001111000000000001000000000000000100000000000000010001000000000001000100000000000100100000000000010010000000000001001100000000000100110000000000010100000000000001010000000000000101010000000000010101000000000001011000000000000101100000000000010111000000000001011100000000000110000000000000011000000000000001100100000000000110010000000000011010000000000001101000000000000110110000000000011011000000000001110000000000000111000000000000011101000000000001110100000000000111100000000000011110000000000001111100000000000111110000000000 ."
b1111110000000000 *
b1111110000000000 2
b1111110000000000 /"
b110 0
b110 G"
b10 H
1!
#70000
0!
#75000
04"
b111 0"
b100011 -
b100011 4
b100011 -"
b1000000000000001000000000000000110000000000000100000000000000010100000000000001100000000000000111000000000000100000000000000010010000000000001010000000000000101100000000000011000000000000001101000000000000111000000000000011110000000000010000000000000001000100000000000100100000000000010011000000000001010000000000000101010000000000010110000000000001011100000000000110000000000000011001000000000001101000000000000110110000000000011100000000000001110100000000000111100000000000011111000000000010000000000000001000010000000000100010000000000010001100000000001001000000000000100101000000000010011000000000001001110000000000101000000000000010100100000000001010100000000000101011000000000010110000000000001011010000000000101110000000000010111100000000001100000000000000110001000000000011001000000000001100110000000000110100000000000011010100000000001101100000000000110111000000000011100000000000001110010000000000111010000000000011101100000000001111000000000000111101000000000011111000000000001111110000000000 ,
b1000000000000001000000000000000110000000000000100000000000000010100000000000001100000000000000111000000000000100000000000000010010000000000001010000000000000101100000000000011000000000000001101000000000000111000000000000011110000000000010000000000000001000100000000000100100000000000010011000000000001010000000000000101010000000000010110000000000001011100000000000110000000000000011001000000000001101000000000000110110000000000011100000000000001110100000000000111100000000000011111000000000010000000000000001000010000000000100010000000000010001100000000001001000000000000100101000000000010011000000000001001110000000000101000000000000010100100000000001010100000000000101011000000000010110000000000001011010000000000101110000000000010111100000000001100000000000000110001000000000011001000000000001100110000000000110100000000000011010100000000001101100000000000110111000000000011100000000000001110010000000000111010000000000011101100000000001111000000000000111101000000000011111000000000001111110000000000 3
b1000000000000001000000000000000110000000000000100000000000000010100000000000001100000000000000111000000000000100000000000000010010000000000001010000000000000101100000000000011000000000000001101000000000000111000000000000011110000000000010000000000000001000100000000000100100000000000010011000000000001010000000000000101010000000000010110000000000001011100000000000110000000000000011001000000000001101000000000000110110000000000011100000000000001110100000000000111100000000000011111000000000010000000000000001000010000000000100010000000000010001100000000001001000000000000100101000000000010011000000000001001110000000000101000000000000010100100000000001010100000000000101011000000000010110000000000001011010000000000101110000000000010111100000000001100000000000000110001000000000011001000000000001100110000000000110100000000000011010100000000001101100000000000110111000000000011100000000000001110010000000000111010000000000011101100000000001111000000000000111101000000000011111000000000001111110000000000 ."
b11001001 8
b1111110000000000 9
1:
b0 >
b0 ?
0@
b11 A
b1001 D
b1111110000000000 E
1F
b0 .
b0 5
b0 1"
b0 +
b0 6
b0 2"
0#
b0 &
b0 7
b0 3"
b111 0
b111 G"
b100000 H
1!
#80000
0!
#85000
b0 )
b0 9"
b0 @"
b0 (
b0 8"
b0 ?"
b0 /
b0 5"
b0 7"
0$
b0 '
b0 6"
b0 >"
b1001 .
b1001 5
b1001 1"
b1111110000000000 +
b1111110000000000 6
b1111110000000000 2"
1#
b111110000000000 &
b111110000000000 7
b111110000000000 3"
b11 D
b0 A
b0 B
0C
b11001001 ;
b1111110000000000 <
1=
b100011 8
0%
b1000 0"
b0 -
b0 4
b0 -"
b0 ,
b0 3
b0 ."
b0 *
b0 2
b0 /"
b1000 0
b1000 G"
b10 H
1!
#90000
0!
#95000
1%
b1001 0"
b1100 -
b1100 4
b1100 -"
b1000000000000000100000000000000010000000000000001000000000000001000000000000000100000000000000010000000000000001000000000000000110000000000000011000000000000001100000000000000110000000000000100000000000000010000000000000001000000000000000100000000000000010100000000000001010000000000000101000000000000010100000000000001100000000000000110000000000000011000000000000001100000000000000111000000000000011100000000000001110000000000000111000000000000100000000000000010000000000000001000000000000000100000000000000010010000000000001001000000000000100100000000000010010000000000001010000000000000101000000000000010100000000000001010000000000000101100000000000010110000000000001011000000000000101100000000000011000000000000001100000000000000110000000000000011000000000000001101000000000000110100000000000011010000000000001101000000000000111000000000000011100000000000001110000000000000111000000000000011110000000000001111000000000000111100000000000011110000000000 ,
b1000000000000000100000000000000010000000000000001000000000000001000000000000000100000000000000010000000000000001000000000000000110000000000000011000000000000001100000000000000110000000000000100000000000000010000000000000001000000000000000100000000000000010100000000000001010000000000000101000000000000010100000000000001100000000000000110000000000000011000000000000001100000000000000111000000000000011100000000000001110000000000000111000000000000100000000000000010000000000000001000000000000000100000000000000010010000000000001001000000000000100100000000000010010000000000001010000000000000101000000000000010100000000000001010000000000000101100000000000010110000000000001011000000000000101100000000000011000000000000001100000000000000110000000000000011000000000000001101000000000000110100000000000011010000000000001101000000000000111000000000000011100000000000001110000000000000111000000000000011110000000000001111000000000000111100000000000011110000000000 3
b1000000000000000100000000000000010000000000000001000000000000001000000000000000100000000000000010000000000000001000000000000000110000000000000011000000000000001100000000000000110000000000000100000000000000010000000000000001000000000000000100000000000000010100000000000001010000000000000101000000000000010100000000000001100000000000000110000000000000011000000000000001100000000000000111000000000000011100000000000001110000000000000111000000000000100000000000000010000000000000001000000000000000100000000000000010010000000000001001000000000000100100000000000010010000000000001010000000000000101000000000000010100000000000001010000000000000101100000000000010110000000000001011000000000000101100000000000011000000000000001100000000000000110000000000000011000000000000001101000000000000110100000000000011010000000000001101000000000000111000000000000011100000000000001110000000000000111000000000000011110000000000001111000000000000111100000000000011110000000000 ."
b1111110000000000 *
b1111110000000000 2
b1111110000000000 /"
b0 8
b0 9
0:
b100011 ;
b11001001 >
b1111110000000000 ?
1@
b0 D
b0 E
0F
b11 .
b11 5
b11 1"
b1111110000000000 &
b1111110000000000 7
b1111110000000000 3"
b1001 /
b1001 5"
b1001 7"
1$
b100000 '
b100000 6"
b100000 >"
b1001 0
b1001 G"
b100000 H
1!
#100000
0!
#105000
b1 )
b1 9"
b1 @"
b1 D"
b11 /
b11 5"
b11 7"
b0 '
b0 6"
b0 >"
b0 .
b0 5
b0 1"
b0 +
b0 6
b0 2"
0#
b0 &
b0 7
b0 3"
b11001001 A
b1111110000000000 B
1C
b100011 >
b0 ;
b0 <
0=
b1100 8
b1111110000000000 9
1:
b1010 0"
b101100 -
b101100 4
b101100 -"
b1010 0
b1010 G"
b10 H
1!
#110000
0!
#115000
b1 (
b1 8"
b1 ?"
b1 )
b1 9"
b1 @"
0%
b1011 0"
b0 -
b0 4
b0 -"
b0 ,
b0 3
b0 ."
b0 *
b0 2
b0 /"
b101100 8
b1100 ;
b1111110000000000 <
1=
b0 >
b0 ?
0@
b100011 A
b11001001 D
b1111110000000000 E
1F
b0 /
b0 5"
b0 7"
0$
b10 D"
b1011 0
b1011 G"
b100000 H
1!
#120000
0!
#125000
b11001001 .
b11001001 5
b11001001 1"
b1111110000000000 +
b1111110000000000 6
b1111110000000000 2"
1#
b111110000000000 &
b111110000000000 7
b111110000000000 3"
b100011 D
b0 A
b0 B
0C
b1100 >
b1111110000000000 ?
1@
b101100 ;
b0 8
b0 9
0:
b1100 0"
b1100 0
b1100 G"
b10 H
1!
#130000
0!
#135000
b0 )
b0 9"
b0 @"
x%
b1101 0"
bx -
bx 4
bx -"
bx ,
bx 3
bx ."
bx *
bx 2
bx /"
b0 ;
b0 <
0=
b101100 >
b1100 A
b1111110000000000 B
1C
b0 D
b0 E
0F
b100011 .
b100011 5
b100011 1"
b1111110000000000 &
b1111110000000000 7
b1111110000000000 3"
b11001001 /
b11001001 5"
b11001001 7"
1$
b100000 '
b100000 6"
b100000 >"
b1101 0
b1101 G"
b100000 H
1!
#140000
0!
#145000
b1 )
b1 9"
b1 @"
b100011 /
b100011 5"
b100011 7"
b0 '
b0 6"
b0 >"
b0 .
b0 5
b0 1"
b0 +
b0 6
b0 2"
0#
b0 &
b0 7
b0 3"
b1100 D
b1111110000000000 E
1F
b101100 A
b0 >
b0 ?
0@
bx 8
bx 9
x:
b1110 0"
b1110 0
b1110 G"
b10 H
1!
#150000
0!
#155000
b10 (
b10 8"
b10 ?"
b1111 0"
bx ;
bx <
x=
b0 A
b0 B
0C
b101100 D
b1100 .
b1100 5
b1100 1"
b1111110000000000 +
b1111110000000000 6
b1111110000000000 2"
1#
b11110000000000 &
b11110000000000 7
b11110000000000 3"
b0 /
b0 5"
b0 7"
0$
b1111 0
b1111 G"
b100000 H
1!
#160000
0!
#165000
b10 )
b10 9"
b10 @"
b0 (
b0 8"
b0 ?"
b1100 /
b1100 5"
b1100 7"
1$
b110000 '
b110000 6"
b110000 >"
b101100 .
b101100 5
b101100 1"
b0 D
b0 E
0F
bx >
bx ?
x@
b10000 0"
b10000 0
b10000 G"
b10 H
1!
#170000
0!
#175000
b1 (
b1 8"
b1 ?"
b10 )
b10 9"
b10 @"
b10001 0"
bx A
bx B
xC
b0 .
b0 5
b0 1"
b0 +
b0 6
b0 2"
0#
b0 &
b0 7
b0 3"
b101100 /
b101100 5"
b101100 7"
b11 D"
b10001 0
b10001 G"
b100000 H
1!
#180000
0!
#185000
b1 )
b1 9"
b1 @"
b10 (
b10 8"
b10 ?"
b0 /
b0 5"
b0 7"
0$
b0 '
b0 6"
b0 >"
bx D
bx E
xF
b10010 0"
b10010 0
b10010 G"
b10 H
1!
#190000
0!
#195000
x4"
b10011 0"
bx .
bx 5
bx 1"
bx +
bx 6
bx 2"
x#
bx &
bx 7
bx 3"
b10011 0
b10011 G"
b100000 H
1!
#200000
0!
#205000
bx )
bx 9"
bx @"
bx (
bx 8"
bx ?"
bx /
bx 5"
bx 7"
x$
bx '
bx 6"
bx >"
b10100 0"
b10100 0
b10100 G"
b10 H
1!
